<?xml version="1.0" encoding="utf-8"?>
<!-- Generator: Adobe Illustrator 16.0.4, SVG Export Plug-In . SVG Version: 6.00 Build 0)  -->
<!DOCTYPE svg PUBLIC "-//W3C//DTD SVG 1.1//EN" "http://www.w3.org/Graphics/SVG/1.1/DTD/svg11.dtd">
<svg version="1.1" id="Layer_1" xmlns="http://www.w3.org/2000/svg" xmlns:xlink="http://www.w3.org/1999/xlink" x="0px" y="0px"
	 width="413.971px" height="413.971px" viewBox="0 0 413.971 413.971" enable-background="new 0 0 413.971 413.971"
	 xml:space="preserve">
<circle fill="#0099CC" cx="206.986" cy="206.985" r="206.986"/>
<g display="none">
	<g display="inline">
		<path fill="#FFFFFF" d="M216.639,262.965c-17.901,0.02-35.845-6.993-49.363-20.525l0,0l-2.14-2.14l30.66-30.67l2.144,2.141
			c5.278,5.267,11.949,7.809,18.699,7.826l0,0c7.072-0.028,13.82-2.575,19.086-7.826l0,0l50.267-50.267
			c5.26-5.276,7.805-11.997,7.828-18.937l0,0c-0.023-6.878-2.566-13.581-7.822-18.854l0,0l-2.141-2.141
			c-5.275-5.259-11.982-7.8-18.893-7.827l0,0c-6.914,0.026-13.622,2.568-18.897,7.827l0,0l-20.668,20.672
			c-8.465,8.469-22.195,8.469-30.663,0l0,0c-8.47-8.467-8.47-22.195-0.003-30.664l0,0l20.671-20.672
			c13.627-13.646,31.694-20.552,49.56-20.53l0,0c17.863-0.022,35.928,6.885,49.557,20.53l0,0l2.141,2.139
			c13.621,13.607,20.551,31.648,20.525,49.52l0,0c0.025,17.858-6.863,35.945-20.529,49.6l0,0l-50.268,50.266
			c-13.708,13.724-31.843,20.531-49.639,20.531l0,0C216.712,262.965,216.675,262.965,216.639,262.965L216.639,262.965z"/>
	</g>
	<g display="inline">
		<path fill="#FFFFFF" d="M146.816,348.414c-17.896,0.019-35.845-6.992-49.363-20.528l0,0l-2.139-2.136
			c-13.681-13.667-20.555-31.771-20.53-49.627l0,0c-0.022-17.871,6.917-35.902,20.53-49.491l0,0l50.269-50.271
			c13.627-13.645,31.694-20.556,49.56-20.531l0,0c14.006-0.02,28.135,4.224,40.152,12.63l0,0c1.989,1.011,3.855,2.347,5.518,4.01
			l0,0l3.887,3.886l2.14,2.139h0l0,0.001l-30.658,30.67l-0.003-0.004l-2.14-2.141c-5.277-5.259-11.983-7.801-18.895-7.827l0,0
			c-6.911,0.026-13.619,2.568-18.895,7.827l0,0l-50.273,50.273c-5.257,5.274-7.799,11.968-7.821,18.826l0,0
			c0.025,6.964,2.57,13.688,7.823,18.961l0,0l2.142,2.136c5.279,5.268,11.951,7.808,18.698,7.826l0,0
			c7.074-0.028,13.823-2.574,19.09-7.826l0,0l21.66-21.66c8.469-8.464,22.198-8.464,30.663,0.004l0,0
			c8.468,8.466,8.468,22.192,0,30.662l0,0l-21.662,21.66c-13.706,13.722-31.845,20.528-49.64,20.528l0,0
			C146.89,348.414,146.854,348.414,146.816,348.414L146.816,348.414z"/>
	</g>
</g>
<path display="none" fill="#FFFFFF" d="M273.315,70.379H139.413c-7.458,0-13.504,6.045-13.504,13.505v250.54
	c0,7.458,6.046,13.506,13.504,13.506h133.902c7.458,0,13.508-6.048,13.508-13.506V83.884
	C286.823,76.424,280.773,70.379,273.315,70.379z M177.73,328.007h-29.395v-29.395h29.395V328.007z M177.73,284.785h-29.395v-29.396
	h29.395V284.785z M221.917,328.007h-29.395v-29.395h29.395V328.007z M221.917,284.785h-29.395v-29.396h29.395V284.785z
	 M193.807,233.781c0-6.946,5.63-12.576,12.575-12.576c6.944,0,12.572,5.63,12.572,12.576c0,6.944-5.628,12.574-12.572,12.574
	C199.438,246.355,193.807,240.726,193.807,233.781z M265.516,328.007H236.12v-29.395h29.396V328.007z M265.516,284.785H236.12
	v-29.396h29.396V284.785z M265.516,215.415h-117.18V91.992h117.18V215.415z"/>
<path fill="#FFFFFF" d="M336.606,288.215c-4.354-12.623-18.776-14.438-30.818-19.517c-13.229-5.575-27.896-12.054-41.093-17.466
	c-3.765-1.025-7.534-2.055-11.299-3.082c-4.497-3.094-8.898-13.376-11.303-18.489c-2.396-0.343-4.79-0.685-7.192-1.024
	c0.372-7.91,5.269-8.335,7.192-14.381c1.694-5.329,0.177-12.26,2.864-17.193c1.865-3.427,6.082-3.451,8.188-6.389
	c1.913-2.666,3.171-7.315,3.766-10.579c1.087-5.97,2.036-14.135-0.797-20.055c-1.63-3.399-2.658-3.726-3.112-7.854
	c-0.551-5.002,1.477-21.322,1.561-24.849c0.206-9.154-0.016-9.895-2.232-18.81c0,0-2.688-8.08-6.906-10.512l-8.406-1.447
	l-5.195-4.814c-20.932-12.881-43.375-3.848-55.393,1.026c-17.32,5.619-28.271,22.576-20.625,58.808
	c1.305,6.189-3.388,8.956-3.082,12.332c0.672,7.384,0.813,25.137,7.79,29.508c0.649,0.407,5.599,1.647,5.566,1.309
	c0.687,7.188,1.37,14.385,2.054,21.574c1.742,4.777,5.922,5.304,7.136,12.055l-5.347,1.298c-2.404,5.113-6.807,15.396-11.302,18.489
	c-3.767,1.027-7.535,2.057-11.3,3.082c-13.196,5.412-27.864,11.891-41.09,17.466c-12.045,5.079-26.465,6.894-30.819,19.517
	c0,8.576-0.809,28.828-0.587,40.061h262.37C337.413,317.043,336.606,296.791,336.606,288.215z M281.514,316.908h-46.715v-20.549
	h46.715V316.908z"/>
</svg>
