<?xml version="1.0" encoding="utf-8"?>
<!-- Generator: Adobe Illustrator 19.0.0, SVG Export Plug-In . SVG Version: 6.00 Build 0)  -->
<svg version="1.1" id="Layer_1" xmlns="http://www.w3.org/2000/svg" xmlns:xlink="http://www.w3.org/1999/xlink" x="0px" y="0px"
	 viewBox="0 0 81 70" enable-background="new 0 0 81 70" xml:space="preserve">
<path fill="#010202" d="M68.6-63.5c0,0.8-0.6,1.4-1.4,1.4H18.3c-0.8,0-1.4-0.6-1.4-1.4v-0.1c0-0.8,0.6-1.4,1.4-1.4h48.9
	c0.8,0,1.4,0.6,1.4,1.4V-63.5z"/>
<path fill="#010202" d="M72.8-64.3c0-0.1-0.1-0.1-0.2-0.1l-0.8-0.1l-0.4-0.7c0-0.1-0.1-0.1-0.2-0.1s-0.1,0-0.2,0.1l-0.4,0.7
	l-0.8,0.1c-0.1,0-0.1,0.1-0.2,0.1c0,0.1,0,0.2,0.1,0.2l0.6,0.6l-0.1,0.8c0,0.1,0,0.2,0.1,0.2c0.1,0,0.1,0.1,0.2,0l0.7-0.4l0.7,0.4
	c0.1,0,0.2,0,0.2,0c0.1,0,0.1-0.1,0.1-0.2l-0.1-0.8l0.6-0.6C72.8-64.1,72.8-64.2,72.8-64.3z"/>
<path fill="#010202" d="M10.9-65.3c0.1-0.1,0.4-0.1,0.5,0l1.1,1.1c0.1,0.1,0.1,0.4,0,0.5l-1.1,1.1c-0.1,0.1-0.4,0.1-0.5,0
	c-0.1-0.1-0.1-0.4,0-0.5l0.4-0.4h-1.2c-0.2,0-0.4-0.2-0.4-0.4c0-0.2,0.2-0.4,0.4-0.4h1.2l-0.4-0.4C10.8-64.9,10.8-65.1,10.9-65.3z"
	/>
<path fill="#010202" d="M7.8-62.6c-0.1,0.1-0.4,0.1-0.5,0l-1.1-1.1c-0.1-0.1-0.1-0.4,0-0.5l1.1-1.1c0.1-0.1,0.4-0.1,0.5,0
	c0.1,0.1,0.1,0.4,0,0.5l-0.4,0.4h1.2c0.2,0,0.4,0.2,0.4,0.4c0,0.2-0.2,0.4-0.4,0.4H7.4l0.4,0.4C8-63,8-62.7,7.8-62.6z"/>
<path fill="#010202" d="M16-63.7c-0.1,0-0.2,0-0.3,0c-0.1,0-0.1,0-0.1,0c-0.1,0-0.2,0-0.2,0.1c0,0.4-0.3,0.6-0.6,0.6
	c-0.4,0-0.6-0.4-0.6-0.7c0-0.4,0.3-0.7,0.6-0.7h0.1l-0.1,0.2c-0.1,0.1-0.1,0.2-0.1,0.3c0,0.1,0,0.2,0.1,0.3c0.1,0.1,0.4,0.1,0.5,0
	l0.7-0.7c0.1-0.1,0.1-0.2,0.1-0.2c0-0.1,0-0.2-0.1-0.3l-0.7-0.7c-0.1-0.1-0.4-0.1-0.5,0c-0.1,0.1-0.1,0.2-0.1,0.2
	c0,0.1,0,0.1,0.1,0.2l0.1,0h-0.1c0,0,0,0.1,0,0.1c-0.7,0-1.4,0.7-1.4,1.4c0,0.7,0.6,1.4,1.4,1.4s1.4-0.6,1.4-1.3
	C16.1-63.6,16.1-63.7,16-63.7z"/>
<path fill="#010202" d="M75.3-14.4c0,1.1-0.6,1.8-1.7,1.8H5.4c-1.1,0-2.1-0.7-2.1-1.8v-52.9h72V-14.4z M66.2-72.1
	c0.7,0,1.3,0.6,1.3,1.3s-0.6,1.3-1.3,1.3s-1.3-0.6-1.3-1.3S65.5-72.1,66.2-72.1z M69.5-72.1c0.7,0,1.3,0.6,1.3,1.3s-0.6,1.3-1.3,1.3
	s-1.3-0.6-1.3-1.3S68.8-72.1,69.5-72.1z M73-72.1c0.7,0,1.3,0.6,1.3,1.3s-0.6,1.3-1.3,1.3c-0.7,0-1.3-0.6-1.3-1.3S72.3-72.1,73-72.1
	z M76.8-71.6c0-1.8-1.5-3.3-3.3-3.3H5.1c-1.8,0-3.3,1.5-3.3,3.3v57.1c0,1.8,1.5,3.3,3.3,3.3h68.4c1.8,0,3.3-1.5,3.3-3.3V-71.6z"/>
<path fill="#010202" d="M70.8-18.9c0,1.1-0.4,1.8-1.5,1.8H10.1c-1.1,0-2.2-0.7-2.2-1.8v-37.9c0-1.1,0.4-1.5,1.5-1.5h59.3
	c1.1,0,2.2,0.4,2.2,1.5V-18.9z M68.9-59.9H9.5c-1.8,0-3.1,1.2-3.1,3v38c0,1.8,1.6,3.3,3.5,3.3h59.4c1.8,0,3.1-1.5,3.1-3.3v-38
	C72.3-58.7,70.7-59.9,68.9-59.9z"/>
<path id="XMLID_1_" fill="none" stroke="#B2B2B2" stroke-miterlimit="10" d="M74,59.5H4.7c-1.6,0-2.8-1.3-2.8-2.8V7.5h75v49.1
	C76.8,58.2,75.6,59.5,74,59.5z"/>
<path id="XMLID_2_" fill="#B2B2B2" stroke="#B2B2B2" stroke-miterlimit="10" d="M76.8,7.5h-75V4.8C1.8,3.3,3.1,2,4.7,2H74
	c1.6,0,2.8,1.3,2.8,2.8V7.5z"/>
<circle id="XMLID_3_" fill="#FFFFFF" cx="66.1" cy="4.6" r="1.2"/>
<circle id="XMLID_4_" fill="#FFFFFF" cx="69.7" cy="4.6" r="1.2"/>
<circle id="XMLID_5_" fill="#FFFFFF" cx="73" cy="4.6" r="1.2"/>
<rect id="XMLID_7_" x="17" y="12.7" fill="none" stroke="#B2B2B2" stroke-miterlimit="10" stroke-dasharray="2" width="44.4" height="41.4"/>
<polygon id="XMLID_32_" fill="#B2B2B2" points="73.4,41.2 58.6,41.2 58.6,69.2 80.2,69.2 80.2,48 "/>
<polygon id="XMLID_33_" fill="#B2B2B2" points="73.7,43.1 78.4,47.7 73.7,47.7 "/>
<polygon id="XMLID_34_" fill="#FFFFFF" points="59.7,68.2 59.7,42.3 72.7,42.3 72.7,48.8 79.1,48.8 79.1,68.2 59.7,68.2 "/>
<rect id="XMLID_30_" x="63" y="54.2" fill="#B2B2B2" width="12.9" height="1.1"/>
<rect id="XMLID_29_" x="63" y="57.4" fill="#B2B2B2" width="12.9" height="1.1"/>
<rect id="XMLID_28_" x="63" y="50.9" fill="#B2B2B2" width="7.5" height="1.1"/>
<rect id="XMLID_27_" x="63" y="60.6" fill="#B2B2B2" width="12.9" height="1.1"/>
</svg>
