<?xml version="1.0" encoding="utf-8"?>
<!-- Generator: Adobe Illustrator 16.0.4, SVG Export Plug-In . SVG Version: 6.00 Build 0)  -->
<!DOCTYPE svg PUBLIC "-//W3C//DTD SVG 1.1//EN" "http://www.w3.org/Graphics/SVG/1.1/DTD/svg11.dtd">
<svg version="1.1" id="Layer_1" xmlns="http://www.w3.org/2000/svg" xmlns:xlink="http://www.w3.org/1999/xlink" x="0px" y="0px"
	 width="530.417px" height="142.39px" viewBox="0 0 530.417 142.39" enable-background="new 0 0 530.417 142.39"
	 xml:space="preserve">
<g>
	<path fill="#FFFFFF" d="M528.417,142.39H2.179V2.962h526.237V142.39z M4.209,140.359h522.177V4.992H4.209V140.359z"/>
</g>
<g>
	<path fill="#FFFFFF" d="M92.456,95.64h6.234L78.483,49.778h-7.218L51.057,95.64h6.236l4.814-10.936h25.531L92.456,95.64z
		 M85.317,79.428H64.434L74.872,55.75L85.317,79.428z"/>
	<polygon fill="#FFFFFF" points="121.112,95.64 148.954,95.64 148.954,90.16 127.007,90.16 127.007,49.778 121.112,49.778 	"/>
	<polygon fill="#FFFFFF" points="178.075,95.64 183.968,95.64 183.968,54.986 198.552,54.986 198.552,49.778 163.49,49.778 
		163.49,54.986 178.075,54.986 	"/>
	<path fill="#FFFFFF" d="M254.051,95.64h6.236l-20.207-45.862h-7.22l-20.21,45.862h6.24l4.816-10.936h25.526L254.051,95.64z
		 M246.913,79.428h-20.884l10.443-23.679L246.913,79.428z"/>
	<g>
		<path fill="#FFFFFF" d="M299.6,95.513h-19.991V49.837h17.774c3.093,0,5.758,0.372,8.003,1.111c2.238,0.743,3.91,1.742,4.995,3.003
			c2.093,2.356,3.14,5.015,3.14,7.977c0,3.571-1.135,6.226-3.397,7.973c-0.827,0.608-1.396,0.991-1.7,1.138
			c-0.304,0.156-0.851,0.409-1.635,0.757c2.832,0.607,5.088,1.88,6.764,3.82c1.677,1.938,2.512,4.347,2.512,7.22
			c0,3.179-1.084,5.986-3.263,8.429C310.229,94.095,305.833,95.513,299.6,95.513 M287.321,68.786h9.799
			c5.575,0,8.367-1.894,8.367-5.685c0-2.176-0.677-3.743-2.031-4.703c-1.345-0.959-3.438-1.438-6.273-1.438h-9.861V68.786z
			 M287.321,88.393h12.087c2.832,0,4.997-0.452,6.499-1.34c1.508-0.895,2.255-2.584,2.255-5.066c0-4.055-3.242-6.077-9.735-6.077
			h-11.105V88.393z"/>
		<polygon fill="#FFFFFF" points="338.024,95.513 338.024,49.837 345.737,49.837 345.737,88.195 366.574,88.195 366.574,95.513 		
			"/>
		<path fill="#FFFFFF" d="M396.439,84.709c2.091,2.415,4.916,3.625,8.495,3.625c3.569,0,6.401-1.21,8.49-3.625
			c2.093-2.416,3.14-5.694,3.14-9.833V49.837h7.709v25.36c0,6.516-1.812,11.527-5.422,15.04c-3.62,3.514-8.257,5.275-13.917,5.275
			c-5.667,0-10.305-1.762-13.921-5.275c-3.616-3.513-5.422-8.524-5.422-15.04v-25.36h7.705v25.039
			C393.296,79.015,394.348,82.293,396.439,84.709"/>
		<polygon fill="#FFFFFF" points="480.729,49.837 480.729,57.091 456.356,57.091 456.356,69.183 478.243,69.183 478.243,76.039 
			456.356,76.039 456.356,88.258 481.507,88.258 481.507,95.513 448.646,95.513 448.646,49.837 		"/>
	</g>
</g>
</svg>
